{
	"id": "817f2287-d9e7-48c8-8a45-127e366aaf3e",
	"name": "Reqres",
	"values": [
		{
			"key": "Base_URL",
			"value": "https://reqres.in",
			"type": "default",
			"enabled": true
		},
		{
			"key": "Post_URL",
			"value": "{{Base_URL}}/api/users",
			"type": "default",
			"enabled": true
		},
		{
			"key": "Get_URL",
			"value": "{{Base_URL}}/api/users?page=2",
			"type": "default",
			"enabled": true
		},
		{
			"key": "Patch_URL",
			"value": "{{Base_URL}}/api/users/2",
			"type": "default",
			"enabled": true
		},
		{
			"key": "Put_URL",
			"value": "{{Base_URL}}/api/users/2",
			"type": "default",
			"enabled": true
		}
	],
	"_postman_variable_scope": "environment",
	"_postman_exported_at": "2023-10-18T09:54:54.361Z",
	"_postman_exported_using": "Postman/10.18.11"
}